<svg width="32" height="32" viewBox="0 0 32 32" fill="none" xmlns="http://www.w3.org/2000/svg">
<circle cx="16" cy="16" r="15.5" stroke="white" stroke-opacity="0.7"/>
<path d="M10.6665 15C10.1142 15 9.6665 15.4477 9.6665 16C9.6665 16.5523 10.1142 17 10.6665 17V15ZM22.0403 16.7071C22.4308 16.3166 22.4308 15.6834 22.0403 15.2929L15.6763 8.92893C15.2858 8.53841 14.6526 8.53841 14.2621 8.92893C13.8716 9.31946 13.8716 9.95262 14.2621 10.3431L19.919 16L14.2621 21.6569C13.8716 22.0474 13.8716 22.6805 14.2621 23.0711C14.6526 23.4616 15.2858 23.4616 15.6763 23.0711L22.0403 16.7071ZM10.6665 17H21.3332V15H10.6665V17Z" fill="white" fill-opacity="0.7"/>
</svg>
